%YAML 1.1
%TAG !u! tag:unity3d.com,2011:
--- !u!1045 &1
EditorBuildSettings:
  m_ObjectHideFlags: 0
  serializedVersion: 2
  m_Scenes:
  - enabled: 1
    path: Assets/Scenes/MainMenu.unity
    guid: 116273c07275e734f801e85e447faf9e
  - enabled: 1
    path: Assets/Scenes/Level1.unity
    guid: 25020c32999c2994490624e6cdc7a4c9
  - enabled: 1
    path: Assets/Scenes/Level2.unity
    guid: 989ac419ace570e42927c267a2c32a3c
  m_configObjects: {}
