%YAML 1.1
%TAG !u! tag:unity3d.com,2011:
--- !u!114 &11400000
MonoBehaviour:
  m_ObjectHideFlags: 0
  m_CorrespondingSourceObject: {fileID: 0}
  m_PrefabInternal: {fileID: 0}
  m_GameObject: {fileID: 0}
  m_Enabled: 1
  m_EditorHideFlags: 0
  m_Script: {fileID: 11500000, guid: 0f96d8dec078865439bdade4a0a72d8f, type: 3}
  m_Name: Growl
  m_EditorClassIdentifier: 
  AudioClip: {fileID: 8300000, guid: c0a7c464e899d02439791e5694cf421b, type: 3}
  Volume: 0
  AudioMixerGroup: {fileID: 0}
  Loop: 0
